{
  "pagination": {
    "total": 27,
    "pages": 2,
    "page": 1
  },
  "list": [
    {
      "data_type": "manga",
      "title_original": "One Piece",
      "media_type": "manga",
      "title_ua": "Ван Піс",
      "title_en": "One Piece",
      "chapters": null,
      "volumes": null,
      "translated_ua": true,
      "status": "ongoing",
      "image": "https://cdn.hikka.io/content/manga/one-piece-f180bc/Gtp0FGFvfngwVWB3cSEPHg.jpg",
      "year": 1997,
      "scored_by": 391714,
      "score": 9.22,
      "slug": "one-piece-f180bc",
      "read": []
    },
    {
      "data_type": "manga",
      "title_original": "One Piece: Episode A",
      "media_type": "manga",
      "title_ua": "Ван Піс: Пригоди Ейса",
      "title_en": "One Piece: Ace's Story",
      "chapters": 6,
      "volumes": 2,
      "translated_ua": true,
      "status": "finished",
      "image": "https://cdn.hikka.io/content/manga/one-piece-episode-a-94e121/KUDhPfBnwnbhywdOFACBzg.jpg",
      "year": 2020,
      "scored_by": 5913,
      "score": 8.1,
      "slug": "one-piece-episode-a-94e121",
      "read": []
    },
    {
      "data_type": "manga",
      "title_original": "One Piece: Strong World",
      "media_type": "one_shot",
      "title_ua": "Ван Піс: Сильний світ - Епізод 0",
      "title_en": null,
      "chapters": 1,
      "volumes": null,
      "translated_ua": false,
      "status": "finished",
      "image": "https://cdn.hikka.io/content/manga/one-piece-strong-world-310ece/bGdPhC8lQv9o8pBrofi8uA.jpg",
      "year": 2009,
      "scored_by": 9023,
      "score": 8.07,
      "slug": "one-piece-strong-world-310ece",
      "read": []
    },
    {
      "data_type": "manga",
      "title_original": "One Piece: Roronoa Zoro, Umi ni Chiru",
      "media_type": "one_shot",
      "title_ua": "Ван Піс: Ророноа Зоро за бортом",
      "title_en": "One Piece: Boichi Covers Zolo vs. Mihawk",
      "chapters": 1,
      "volumes": null,
      "translated_ua": true,
      "status": "finished",
      "image": "https://cdn.hikka.io/content/manga/one-piece-roronoa-zoro-umi-ni-chiru-d8c6a4/HHHzAcsFURVt6ar9MFw65g.jpg",
      "year": 2019,
      "scored_by": 3043,
      "score": 7.59,
      "slug": "one-piece-roronoa-zoro-umi-ni-chiru-d8c6a4",
      "read": []
    },
    {
      "data_type": "manga",
      "title_original": "One Piece: Vivi no Bouken",
      "media_type": "one_shot",
      "title_ua": null,
      "title_en": "One Piece: Vivi's Adventure",
      "chapters": 1,
      "volumes": null,
      "translated_ua": false,
      "status": "finished",
      "image": "https://cdn.hikka.io/content/manga/one-piece-vivi-no-bouken-6bc690/aGKKM-WThVubTXGqOXPRHw.jpg",
      "year": 2021,
      "scored_by": 1665,
      "score": 7.37,
      "slug": "one-piece-vivi-no-bouken-6bc690",
      "read": []
    },
    {
      "data_type": "manga",
      "title_original": "One Piece Party",
      "media_type": "manga",
      "title_ua": null,
      "title_en": null,
      "chapters": 34,
      "volumes": 7,
      "translated_ua": false,
      "status": "finished",
      "image": "https://cdn.hikka.io/content/manga/one-piece-party-a402ef/XZBxGBr2KJ67Ky5ePa1Gww.jpg",
      "year": 2014,
      "scored_by": 1242,
      "score": 7.29,
      "slug": "one-piece-party-a402ef",
      "read": []
    },
    {
      "data_type": "manga",
      "title_original": "One Piece: Mugiwara Daigekijou",
      "media_type": "manga",
      "title_ua": null,
      "title_en": null,
      "chapters": 13,
      "volumes": 1,
      "translated_ua": false,
      "status": "finished",
      "image": "https://cdn.hikka.io/content/manga/one-piece-mugiwara-daigekijou-6532ca/hz-puZ-yxpyzsMLg8-Vn8Q.jpg",
      "year": 2005,
      "scored_by": 1358,
      "score": 7.28,
      "slug": "one-piece-mugiwara-daigekijou-6532ca",
      "read": []
    },
    {
      "data_type": "manga",
      "title_original": "One Piece Gakuen",
      "media_type": "manga",
      "title_ua": null,
      "title_en": null,
      "chapters": null,
      "volumes": null,
      "translated_ua": false,
      "status": "ongoing",
      "image": "https://cdn.hikka.io/content/manga/one-piece-gakuen-170c59/B-PNQQ4wCPafHh74q6GCyw.jpg",
      "year": 2019,
      "scored_by": 226,
      "score": 6.77,
      "slug": "one-piece-gakuen-170c59",
      "read": []
    },
    {
      "data_type": "manga",
      "title_original": "One Piece: Nami vs. Kalifa",
      "media_type": "one_shot",
      "title_ua": "Ван Піс: Намі проти Каліфи",
      "title_en": null,
      "chapters": 1,
      "volumes": null,
      "translated_ua": false,
      "status": "finished",
      "image": "https://cdn.hikka.io/content/manga/one-piece-nami-vs-kalifa-c1a615/gG-2RLWiU2zxTTh-lTAQew.jpg",
      "year": 2022,
      "scored_by": 1408,
      "score": 6.69,
      "slug": "one-piece-nami-vs-kalifa-c1a615",
      "read": []
    },
    {
      "data_type": "manga",
      "title_original": "One Piece 1000-wa Kinen! Tokubetsu Bangai-hen",
      "media_type": "manga",
      "title_ua": null,
      "title_en": null,
      "chapters": 19,
      "volumes": null,
      "translated_ua": false,
      "status": "finished",
      "image": "https://cdn.hikka.io/content/manga/one-piece-1000-wa-kinen-tokubetsu-bangai-hen-62a6ae/4b6a0xy8RpTPl_AZPt9d3g.jpg",
      "year": 2021,
      "scored_by": 115,
      "score": 6.51,
      "slug": "one-piece-1000-wa-kinen-tokubetsu-bangai-hen-62a6ae",
      "read": []
    },
    {
      "data_type": "manga",
      "title_original": "One Piece: Koby-ni no Kobiyama - Uri Futatsunagi no Daihihou",
      "media_type": "manga",
      "title_ua": null,
      "title_en": null,
      "chapters": 49,
      "volumes": 3,
      "translated_ua": false,
      "status": "finished",
      "image": "https://cdn.hikka.io/content/manga/one-piece-koby-ni-no-kobiyama-uri-futatsunagi-no-daihihou-f5ca5c/BfWZAyorTg9D2GJEgAv8uw.jpg",
      "year": 2018,
      "scored_by": 0,
      "score": 0,
      "slug": "one-piece-koby-ni-no-kobiyama-uri-futatsunagi-no-daihihou-f5ca5c",
      "read": []
    },
    {
      "data_type": "manga",
      "title_original": "One Piece Card Battle Hobby Saikyou Kizuna Boost",
      "media_type": "one_shot",
      "title_ua": null,
      "title_en": null,
      "chapters": 1,
      "volumes": null,
      "translated_ua": false,
      "status": "finished",
      "image": "https://cdn.hikka.io/content/manga/one-piece-card-battle-hobby-saikyou-kizuna-boost-fd6543/kQRzSnJXJMUa-dtPP-E3MA.jpg",
      "year": 2015,
      "scored_by": 0,
      "score": 0,
      "slug": "one-piece-card-battle-hobby-saikyou-kizuna-boost-fd6543",
      "read": []
    },
    {
      "data_type": "manga",
      "title_original": "Koisuru One Piece",
      "media_type": "manga",
      "title_ua": null,
      "title_en": null,
      "chapters": null,
      "volumes": null,
      "translated_ua": false,
      "status": "ongoing",
      "image": "https://cdn.hikka.io/content/manga/koisuru-one-piece-94cfa2/3tQJgWETE_PISA2x58fXzw.jpg",
      "year": 2018,
      "scored_by": 123,
      "score": 6.57,
      "slug": "koisuru-one-piece-94cfa2",
      "read": []
    },
    {
      "data_type": "manga",
      "title_original": "Shiro One-Piece Oneesan to Babubabu Amayadori Ecchi",
      "media_type": "doujin",
      "title_ua": null,
      "title_en": null,
      "chapters": null,
      "volumes": 1,
      "translated_ua": false,
      "status": "finished",
      "image": "https://cdn.hikka.io/content/manga/shiro-one-piece-oneesan-to-babubabu-amayadori-ecchi-4f4acd/WHEz7aUIswDHvQz8vP3VGQ.jpg",
      "year": 2022,
      "scored_by": 0,
      "score": 0,
      "slug": "shiro-one-piece-oneesan-to-babubabu-amayadori-ecchi-4f4acd",
      "read": []
    },
    {
      "data_type": "manga",
      "title_original": "Ohana Moyou no One-Piece",
      "media_type": "manga",
      "title_ua": null,
      "title_en": null,
      "chapters": 4,
      "volumes": 1,
      "translated_ua": false,
      "status": "finished",
      "image": "https://cdn.hikka.io/content/manga/ohana-moyou-no-one-piece-fd24f5/ZZG8GL0rI8WGpIlYvUEvDw.jpg",
      "year": null,
      "scored_by": 251,
      "score": 7.08,
      "slug": "ohana-moyou-no-one-piece-fd24f5",
      "read": []
    }
  ]
}